lab5/Lab5_template_de1soc/simulation/qsim/dds_and_nios_lab.msim.vcd
$comment
	File created using the following command:
		vcd file dds_and_nios_lab.msim.vcd -direction
$end
$date
	Sat Apr 03 20:12:04 2021
$end
$version
	ModelSim Version 10.3c
$end
$timescale
	1ps
$end

$scope module DDS_selector_vlg_vec_tst $end
$var reg 1 ! clk $end
$var reg 1 " en $end
$var reg 32 # fsk_phase_inc [31:0] $end
$var reg 1 $ lfsr $end
$var reg 4 % mod_sel [3:0] $end
$var reg 32 & phase_inc [31:0] $end
$var reg 1 ' reset $end
$var reg 8 ( sig_sel [7:0] $end
$var wire 1 ) mod_out [11] $end
$var wire 1 * mod_out [10] $end
$var wire 1 + mod_out [9] $end
$var wire 1 , mod_out [8] $end
$var wire 1 - mod_out [7] $end
$var wire 1 . mod_out [6] $end
$var wire 1 / mod_out [5] $end
$var wire 1 0 mod_out [4] $end
$var wire 1 1 mod_out [3] $end
$var wire 1 2 mod_out [2] $end
$var wire 1 3 mod_out [1] $end
$var wire 1 4 mod_out [0] $end
$var wire 1 5 sig_out [11] $end
$var wire 1 6 sig_out [10] $end
$var wire 1 7 sig_out [9] $end
$var wire 1 8 sig_out [8] $end
$var wire 1 9 sig_out [7] $end
$var wire 1 : sig_out [6] $end
$var wire 1 ; sig_out [5] $end
$var wire 1 < sig_out [4] $end
$var wire 1 = sig_out [3] $end
$var wire 1 > sig_out [2] $end
$var wire 1 ? sig_out [1] $end
$var wire 1 @ sig_out [0] $end
$var wire 1 A sampler $end

$scope module i1 $end
$var wire 1 B gnd $end
$var wire 1 C vcc $end
$var wire 1 D unknown $end
$var tri1 1 E devclrn $end
$var tri1 1 F devpor $end
$var tri1 1 G devoe $end
$var wire 1 H ~QUARTUS_CREATED_GND~I_combout $end
$var wire 1 I clk~input_o $end
$var wire 1 J clk~inputCLKENA0_outclk $end
$var wire 1 K en~input_o $end
$var wire 1 L fsk_phase_inc[20]~input_o $end
$var wire 1 M tuning_word[20]~feeder_combout $end
$var wire 1 N phase_inc[20]~input_o $end
$var wire 1 O mod_sel[2]~input_o $end
$var wire 1 P mod_sel[3]~input_o $end
$var wire 1 Q mod_sel[0]~input_o $end
$var wire 1 R tuning_word~0_combout $end
$var wire 1 S fsk_phase_inc[19]~input_o $end
$var wire 1 T tuning_word[19]~feeder_combout $end
$var wire 1 U phase_inc[19]~input_o $end
$var wire 1 V fsk_phase_inc[18]~input_o $end
$var wire 1 W tuning_word[18]~feeder_combout $end
$var wire 1 X phase_inc[18]~input_o $end
$var wire 1 Y fsk_phase_inc[17]~input_o $end
$var wire 1 Z tuning_word[17]~feeder_combout $end
$var wire 1 [ phase_inc[17]~input_o $end
$var wire 1 \ fsk_phase_inc[16]~input_o $end
$var wire 1 ] tuning_word[16]~feeder_combout $end
$var wire 1 ^ phase_inc[16]~input_o $end
$var wire 1 _ fsk_phase_inc[15]~input_o $end
$var wire 1 ` tuning_word[15]~feeder_combout $end
$var wire 1 a phase_inc[15]~input_o $end
$var wire 1 b fsk_phase_inc[14]~input_o $end
$var wire 1 c tuning_word[14]~feeder_combout $end
$var wire 1 d phase_inc[14]~input_o $end
$var wire 1 e fsk_phase_inc[13]~input_o $end
$var wire 1 f tuning_word[13]~feeder_combout $end
$var wire 1 g phase_inc[13]~input_o $end
$var wire 1 h fsk_phase_inc[12]~input_o $end
$var wire 1 i tuning_word[12]~feeder_combout $end
$var wire 1 j phase_inc[12]~input_o $end
$var wire 1 k fsk_phase_inc[11]~input_o $end
$var wire 1 l tuning_word[11]~feeder_combout $end
$var wire 1 m phase_inc[11]~input_o $end
$var wire 1 n fsk_phase_inc[10]~input_o $end
$var wire 1 o tuning_word[10]~feeder_combout $end
$var wire 1 p phase_inc[10]~input_o $end
$var wire 1 q fsk_phase_inc[9]~input_o $end
$var wire 1 r tuning_word[9]~feeder_combout $end
$var wire 1 s phase_inc[9]~input_o $end
$var wire 1 t fsk_phase_inc[8]~input_o $end
$var wire 1 u tuning_word[8]~feeder_combout $end
$var wire 1 v phase_inc[8]~input_o $end
$var wire 1 w fsk_phase_inc[7]~input_o $end
$var wire 1 x tuning_word[7]~feeder_combout $end
$var wire 1 y phase_inc[7]~input_o $end
$var wire 1 z fsk_phase_inc[6]~input_o $end
$var wire 1 { tuning_word[6]~feeder_combout $end
$var wire 1 | phase_inc[6]~input_o $end
$var wire 1 } fsk_phase_inc[5]~input_o $end
$var wire 1 ~ tuning_word[5]~feeder_combout $end
$var wire 1 !! phase_inc[5]~input_o $end
$var wire 1 "! fsk_phase_inc[4]~input_o $end
$var wire 1 #! tuning_word[4]~feeder_combout $end
$var wire 1 $! phase_inc[4]~input_o $end
$var wire 1 %! fsk_phase_inc[3]~input_o $end
$var wire 1 &! tuning_word[3]~feeder_combout $end
$var wire 1 '! phase_inc[3]~input_o $end
$var wire 1 (! fsk_phase_inc[2]~input_o $end
$var wire 1 )! tuning_word[2]~feeder_combout $end
$var wire 1 *! phase_inc[2]~input_o $end
$var wire 1 +! fsk_phase_inc[1]~input_o $end
$var wire 1 ,! tuning_word[1]~feeder_combout $end
$var wire 1 -! phase_inc[1]~input_o $end
$var wire 1 .! fsk_phase_inc[0]~input_o $end
$var wire 1 /! tuning_word[0]~feeder_combout $end
$var wire 1 0! phase_inc[0]~input_o $end
$var wire 1 1! waveform|Add0~125_sumout $end
$var wire 1 2! reset~input_o $end
$var wire 1 3! waveform|Add0~126 $end
$var wire 1 4! waveform|Add0~121_sumout $end
$var wire 1 5! waveform|Add0~122 $end
$var wire 1 6! waveform|Add0~117_sumout $end
$var wire 1 7! waveform|Add0~118 $end
$var wire 1 8! waveform|Add0~113_sumout $end
$var wire 1 9! waveform|Add0~114 $end
$var wire 1 :! waveform|Add0~109_sumout $end
$var wire 1 ;! waveform|Add0~110 $end
$var wire 1 <! waveform|Add0~105_sumout $end
$var wire 1 =! waveform|Add0~106 $end
$var wire 1 >! waveform|Add0~101_sumout $end
$var wire 1 ?! waveform|Add0~102 $end
$var wire 1 @! waveform|Add0~97_sumout $end
$var wire 1 A! waveform|Add0~98 $end
$var wire 1 B! waveform|Add0~93_sumout $end
$var wire 1 C! waveform|Add0~94 $end
$var wire 1 D! waveform|Add0~89_sumout $end
$var wire 1 E! waveform|Add0~90 $end
$var wire 1 F! waveform|Add0~85_sumout $end
$var wire 1 G! waveform|Add0~86 $end
$var wire 1 H! waveform|Add0~81_sumout $end
$var wire 1 I! waveform|Add0~82 $end
$var wire 1 J! waveform|Add0~77_sumout $end
$var wire 1 K! waveform|Add0~78 $end
$var wire 1 L! waveform|Add0~73_sumout $end
$var wire 1 M! waveform|Add0~74 $end
$var wire 1 N! waveform|Add0~69_sumout $end
$var wire 1 O! waveform|Add0~70 $end
$var wire 1 P! waveform|Add0~65_sumout $end
$var wire 1 Q! waveform|Add0~66 $end
$var wire 1 R! waveform|Add0~61_sumout $end
$var wire 1 S! waveform|Add0~62 $end
$var wire 1 T! waveform|Add0~57_sumout $end
$var wire 1 U! waveform|Add0~58 $end
$var wire 1 V! waveform|Add0~53_sumout $end
$var wire 1 W! waveform|Add0~54 $end
$var wire 1 X! waveform|Add0~49_sumout $end
$var wire 1 Y! waveform|Add0~50 $end
$var wire 1 Z! waveform|Add0~1_sumout $end
$var wire 1 [! fsk_phase_inc[21]~input_o $end
$var wire 1 \! tuning_word[21]~feeder_combout $end
$var wire 1 ]! phase_inc[21]~input_o $end
$var wire 1 ^! waveform|Add0~2 $end
$var wire 1 _! waveform|Add0~5_sumout $end
$var wire 1 `! fsk_phase_inc[22]~input_o $end
$var wire 1 a! tuning_word[22]~feeder_combout $end
$var wire 1 b! phase_inc[22]~input_o $end
$var wire 1 c! waveform|Add0~6 $end
$var wire 1 d! waveform|Add0~9_sumout $end
$var wire 1 e! fsk_phase_inc[23]~input_o $end
$var wire 1 f! tuning_word[23]~feeder_combout $end
$var wire 1 g! phase_inc[23]~input_o $end
$var wire 1 h! waveform|Add0~10 $end
$var wire 1 i! waveform|Add0~13_sumout $end
$var wire 1 j! fsk_phase_inc[24]~input_o $end
$var wire 1 k! tuning_word[24]~feeder_combout $end
$var wire 1 l! phase_inc[24]~input_o $end
$var wire 1 m! waveform|Add0~14 $end
$var wire 1 n! waveform|Add0~17_sumout $end
$var wire 1 o! fsk_phase_inc[25]~input_o $end
$var wire 1 p! tuning_word[25]~feeder_combout $end
$var wire 1 q! phase_inc[25]~input_o $end
$var wire 1 r! waveform|Add0~18 $end
$var wire 1 s! waveform|Add0~21_sumout $end
$var wire 1 t! fsk_phase_inc[26]~input_o $end
$var wire 1 u! tuning_word[26]~feeder_combout $end
$var wire 1 v! phase_inc[26]~input_o $end
$var wire 1 w! waveform|Add0~22 $end
$var wire 1 x! waveform|Add0~25_sumout $end
$var wire 1 y! fsk_phase_inc[27]~input_o $end
$var wire 1 z! tuning_word[27]~feeder_combout $end
$var wire 1 {! phase_inc[27]~input_o $end
$var wire 1 |! waveform|Add0~26 $end
$var wire 1 }! waveform|Add0~29_sumout $end
$var wire 1 ~! fsk_phase_inc[28]~input_o $end
$var wire 1 !" tuning_word[28]~feeder_combout $end
$var wire 1 "" phase_inc[28]~input_o $end
$var wire 1 #" waveform|Add0~30 $end
$var wire 1 $" waveform|Add0~33_sumout $end
$var wire 1 %" fsk_phase_inc[29]~input_o $end
$var wire 1 &" tuning_word[29]~feeder_combout $end
$var wire 1 '" phase_inc[29]~input_o $end
$var wire 1 (" waveform|Add0~34 $end
$var wire 1 )" waveform|Add0~37_sumout $end
$var wire 1 *" fsk_phase_inc[30]~input_o $end
$var wire 1 +" tuning_word[30]~feeder_combout $end
$var wire 1 ," phase_inc[30]~input_o $end
$var wire 1 -" waveform|Add0~38 $end
$var wire 1 ." waveform|Add0~41_sumout $end
$var wire 1 /" fsk_phase_inc[31]~input_o $end
$var wire 1 0" tuning_word[31]~feeder_combout $end
$var wire 1 1" phase_inc[31]~input_o $end
$var wire 1 2" waveform|Add0~42 $end
$var wire 1 3" waveform|Add0~45_sumout $end
$var wire 1 4" waveform|lut|Mux22_rtl_0|auto_generated|ram_block1a22~portadataout $end
$var wire 1 5" sig_sel[1]~input_o $end
$var wire 1 6" sig_sel[0]~input_o $end
$var wire 1 7" waveform|lut|Mux22_rtl_0|auto_generated|ram_block1a23 $end
$var wire 1 8" waveform|lut_addr_reg[11]~feeder_combout $end
$var wire 1 9" Selector11~0_combout $end
$var wire 1 :" sig_sel[4]~input_o $end
$var wire 1 ;" sig_sel[7]~input_o $end
$var wire 1 <" sig_sel[3]~input_o $end
$var wire 1 =" sig_sel[5]~input_o $end
$var wire 1 >" sig_sel[6]~input_o $end
$var wire 1 ?" sig_sel[2]~input_o $end
$var wire 1 @" sig_out[1]~0_combout $end
$var wire 1 A" sig_out[0]~reg0_q $end
$var wire 1 B" waveform|lut|Mux22_rtl_0|auto_generated|ram_block1a11 $end
$var wire 1 C" waveform|lut|Mux22_rtl_0|auto_generated|ram_block1a0~portadataout $end
$var wire 1 D" waveform|lut_addr_reg[1]~feeder_combout $end
$var wire 1 E" Selector10~0_combout $end
$var wire 1 F" sig_out[1]~reg0_q $end
$var wire 1 G" waveform|lut|Mux22_rtl_0|auto_generated|ram_block1a12 $end
$var wire 1 H" waveform|lut|Mux22_rtl_0|auto_generated|ram_block1a1~portadataout $end
$var wire 1 I" waveform|lut_addr_reg[2]~feeder_combout $end
$var wire 1 J" Selector9~0_combout $end
$var wire 1 K" sig_out[2]~reg0_q $end
$var wire 1 L" waveform|lut|Mux22_rtl_0|auto_generated|ram_block1a2~portadataout $end
$var wire 1 M" waveform|lut|Mux22_rtl_0|auto_generated|ram_block1a13 $end
$var wire 1 N" Selector8~0_combout $end
$var wire 1 O" sig_out[3]~reg0_q $end
$var wire 1 P" waveform|lut|Mux22_rtl_0|auto_generated|ram_block1a3~portadataout $end
$var wire 1 Q" waveform|lut|Mux22_rtl_0|auto_generated|ram_block1a14 $end
$var wire 1 R" waveform|lut_addr_reg[4]~feeder_combout $end
$var wire 1 S" Selector7~0_combout $end
$var wire 1 T" sig_out[4]~reg0_q $end
$var wire 1 U" waveform|lut|Mux22_rtl_0|auto_generated|ram_block1a4~portadataout $end
$var wire 1 V" waveform|lut|Mux22_rtl_0|auto_generated|ram_block1a15 $end
$var wire 1 W" Selector6~0_combout $end
$var wire 1 X" sig_out[5]~reg0_q $end
$var wire 1 Y" waveform|lut|Mux22_rtl_0|auto_generated|ram_block1a5~portadataout $end
$var wire 1 Z" waveform|lut|Mux22_rtl_0|auto_generated|ram_block1a16 $end
$var wire 1 [" waveform|lut_addr_reg[6]~feeder_combout $end
$var wire 1 \" Selector5~0_combout $end
$var wire 1 ]" sig_out[6]~reg0_q $end
$var wire 1 ^" waveform|lut|Mux22_rtl_0|auto_generated|ram_block1a17 $end
$var wire 1 _" waveform|lut|Mux22_rtl_0|auto_generated|ram_block1a6~portadataout $end
$var wire 1 `" Selector4~0_combout $end
$var wire 1 a" sig_out[7]~reg0_q $end
$var wire 1 b" waveform|lut|Mux22_rtl_0|auto_generated|ram_block1a7~portadataout $end
$var wire 1 c" waveform|lut|Mux22_rtl_0|auto_generated|ram_block1a18 $end
$var wire 1 d" Selector3~0_combout $end
$var wire 1 e" sig_out[8]~reg0_q $end
$var wire 1 f" waveform|lut|Mux22_rtl_0|auto_generated|ram_block1a8~portadataout $end
$var wire 1 g" waveform|lut|Mux22_rtl_0|auto_generated|ram_block1a19 $end
$var wire 1 h" Selector2~0_combout $end
$var wire 1 i" sig_out[9]~reg0_q $end
$var wire 1 j" waveform|lut|Mux22_rtl_0|auto_generated|ram_block1a9~portadataout $end
$var wire 1 k" waveform|lut|Mux22_rtl_0|auto_generated|ram_block1a20 $end
$var wire 1 l" Selector1~0_combout $end
$var wire 1 m" sig_out[10]~reg0_q $end
$var wire 1 n" waveform|lut|Mux22_rtl_0|auto_generated|ram_block1a10~portadataout $end
$var wire 1 o" waveform|lut|Mux22_rtl_0|auto_generated|ram_block1a21 $end
$var wire 1 p" Selector0~0_combout $end
$var wire 1 q" sig_out[11]~reg0_q $end
$var wire 1 r" lfsr~input_o $end
$var wire 1 s" Add0~1_sumout $end
$var wire 1 t" mod_sel[1]~input_o $end
$var wire 1 u" mod_out[2]~0_combout $end
$var wire 1 v" mod_out[0]~reg0_q $end
$var wire 1 w" Add0~2 $end
$var wire 1 x" Add0~5_sumout $end
$var wire 1 y" mod_out[1]~reg0_q $end
$var wire 1 z" Add0~6 $end
$var wire 1 {" Add0~9_sumout $end
$var wire 1 |" mod_out[2]~reg0_q $end
$var wire 1 }" Add0~10 $end
$var wire 1 ~" Add0~13_sumout $end
$var wire 1 !# mod_out[3]~reg0_q $end
$var wire 1 "# Add0~14 $end
$var wire 1 ## Add0~17_sumout $end
$var wire 1 $# mod_out[4]~reg0_q $end
$var wire 1 %# Add0~18 $end
$var wire 1 &# Add0~21_sumout $end
$var wire 1 '# mod_out[5]~reg0_q $end
$var wire 1 (# Add0~22 $end
$var wire 1 )# Add0~25_sumout $end
$var wire 1 *# mod_out[6]~reg0_q $end
$var wire 1 +# Add0~26 $end
$var wire 1 ,# Add0~29_sumout $end
$var wire 1 -# mod_out[7]~reg0_q $end
$var wire 1 .# Add0~30 $end
$var wire 1 /# Add0~33_sumout $end
$var wire 1 0# mod_out[8]~reg0_q $end
$var wire 1 1# Add0~34 $end
$var wire 1 2# Add0~37_sumout $end
$var wire 1 3# mod_out[9]~reg0_q $end
$var wire 1 4# Add0~38 $end
$var wire 1 5# Add0~41_sumout $end
$var wire 1 6# mod_out[10]~reg0_q $end
$var wire 1 7# Add0~42 $end
$var wire 1 8# Add0~45_sumout $end
$var wire 1 9# Mux0~0_combout $end
$var wire 1 :# mod_out[11]~reg0_q $end
$var wire 1 ;# tuning_word [31] $end
$var wire 1 <# tuning_word [30] $end
$var wire 1 =# tuning_word [29] $end
$var wire 1 ># tuning_word [28] $end
$var wire 1 ?# tuning_word [27] $end
$var wire 1 @# tuning_word [26] $end
$var wire 1 A# tuning_word [25] $end
$var wire 1 B# tuning_word [24] $end
$var wire 1 C# tuning_word [23] $end
$var wire 1 D# tuning_word [22] $end
$var wire 1 E# tuning_word [21] $end
$var wire 1 F# tuning_word [20] $end
$var wire 1 G# tuning_word [19] $end
$var wire 1 H# tuning_word [18] $end
$var wire 1 I# tuning_word [17] $end
$var wire 1 J# tuning_word [16] $end
$var wire 1 K# tuning_word [15] $end
$var wire 1 L# tuning_word [14] $end
$var wire 1 M# tuning_word [13] $end
$var wire 1 N# tuning_word [12] $end
$var wire 1 O# tuning_word [11] $end
$var wire 1 P# tuning_word [10] $end
$var wire 1 Q# tuning_word [9] $end
$var wire 1 R# tuning_word [8] $end
$var wire 1 S# tuning_word [7] $end
$var wire 1 T# tuning_word [6] $end
$var wire 1 U# tuning_word [5] $end
$var wire 1 V# tuning_word [4] $end
$var wire 1 W# tuning_word [3] $end
$var wire 1 X# tuning_word [2] $end
$var wire 1 Y# tuning_word [1] $end
$var wire 1 Z# tuning_word [0] $end
$var wire 1 [# waveform|lut_addr_reg [11] $end
$var wire 1 \# waveform|lut_addr_reg [10] $end
$var wire 1 ]# waveform|lut_addr_reg [9] $end
$var wire 1 ^# waveform|lut_addr_reg [8] $end
$var wire 1 _# waveform|lut_addr_reg [7] $end
$var wire 1 `# waveform|lut_addr_reg [6] $end
$var wire 1 a# waveform|lut_addr_reg [5] $end
$var wire 1 b# waveform|lut_addr_reg [4] $end
$var wire 1 c# waveform|lut_addr_reg [3] $end
$var wire 1 d# waveform|lut_addr_reg [2] $end
$var wire 1 e# waveform|lut_addr_reg [1] $end
$var wire 1 f# waveform|lut_addr_reg [0] $end
$var wire 1 g# waveform|phase_acc [31] $end
$var wire 1 h# waveform|phase_acc [30] $end
$var wire 1 i# waveform|phase_acc [29] $end
$var wire 1 j# waveform|phase_acc [28] $end
$var wire 1 k# waveform|phase_acc [27] $end
$var wire 1 l# waveform|phase_acc [26] $end
$var wire 1 m# waveform|phase_acc [25] $end
$var wire 1 n# waveform|phase_acc [24] $end
$var wire 1 o# waveform|phase_acc [23] $end
$var wire 1 p# waveform|phase_acc [22] $end
$var wire 1 q# waveform|phase_acc [21] $end
$var wire 1 r# waveform|phase_acc [20] $end
$var wire 1 s# waveform|phase_acc [19] $end
$var wire 1 t# waveform|phase_acc [18] $end
$var wire 1 u# waveform|phase_acc [17] $end
$var wire 1 v# waveform|phase_acc [16] $end
$var wire 1 w# waveform|phase_acc [15] $end
$var wire 1 x# waveform|phase_acc [14] $end
$var wire 1 y# waveform|phase_acc [13] $end
$var wire 1 z# waveform|phase_acc [12] $end
$var wire 1 {# waveform|phase_acc [11] $end
$var wire 1 |# waveform|phase_acc [10] $end
$var wire 1 }# waveform|phase_acc [9] $end
$var wire 1 ~# waveform|phase_acc [8] $end
$var wire 1 !$ waveform|phase_acc [7] $end
$var wire 1 "$ waveform|phase_acc [6] $end
$var wire 1 #$ waveform|phase_acc [5] $end
$var wire 1 $$ waveform|phase_acc [4] $end
$var wire 1 %$ waveform|phase_acc [3] $end
$var wire 1 &$ waveform|phase_acc [2] $end
$var wire 1 '$ waveform|phase_acc [1] $end
$var wire 1 ($ waveform|phase_acc [0] $end
$var wire 1 )$ waveform|lut|Mux22_rtl_0|auto_generated|ram_block1a22_PORTADATAOUT_bus [1] $end
$var wire 1 *$ waveform|lut|Mux22_rtl_0|auto_generated|ram_block1a22_PORTADATAOUT_bus [0] $end
$var wire 1 +$ waveform|lut|Mux22_rtl_0|auto_generated|ram_block1a0_PORTADATAOUT_bus [1] $end
$var wire 1 ,$ waveform|lut|Mux22_rtl_0|auto_generated|ram_block1a0_PORTADATAOUT_bus [0] $end
$var wire 1 -$ waveform|lut|Mux22_rtl_0|auto_generated|ram_block1a1_PORTADATAOUT_bus [1] $end
$var wire 1 .$ waveform|lut|Mux22_rtl_0|auto_generated|ram_block1a1_PORTADATAOUT_bus [0] $end
$var wire 1 /$ waveform|lut|Mux22_rtl_0|auto_generated|ram_block1a2_PORTADATAOUT_bus [1] $end
$var wire 1 0$ waveform|lut|Mux22_rtl_0|auto_generated|ram_block1a2_PORTADATAOUT_bus [0] $end
$var wire 1 1$ waveform|lut|Mux22_rtl_0|auto_generated|ram_block1a3_PORTADATAOUT_bus [1] $end
$var wire 1 2$ waveform|lut|Mux22_rtl_0|auto_generated|ram_block1a3_PORTADATAOUT_bus [0] $end
$var wire 1 3$ waveform|lut|Mux22_rtl_0|auto_generated|ram_block1a4_PORTADATAOUT_bus [1] $end
$var wire 1 4$ waveform|lut|Mux22_rtl_0|auto_generated|ram_block1a4_PORTADATAOUT_bus [0] $end
$var wire 1 5$ waveform|lut|Mux22_rtl_0|auto_generated|ram_block1a5_PORTADATAOUT_bus [1] $end
$var wire 1 6$ waveform|lut|Mux22_rtl_0|auto_generated|ram_block1a5_PORTADATAOUT_bus [0] $end
$var wire 1 7$ waveform|lut|Mux22_rtl_0|auto_generated|ram_block1a6_PORTADATAOUT_bus [1] $end
$var wire 1 8$ waveform|lut|Mux22_rtl_0|auto_generated|ram_block1a6_PORTADATAOUT_bus [0] $end
$var wire 1 9$ waveform|lut|Mux22_rtl_0|auto_generated|ram_block1a7_PORTADATAOUT_bus [1] $end
$var wire 1 :$ waveform|lut|Mux22_rtl_0|auto_generated|ram_block1a7_PORTADATAOUT_bus [0] $end
$var wire 1 ;$ waveform|lut|Mux22_rtl_0|auto_generated|ram_block1a8_PORTADATAOUT_bus [1] $end
$var wire 1 <$ waveform|lut|Mux22_rtl_0|auto_generated|ram_block1a8_PORTADATAOUT_bus [0] $end
$var wire 1 =$ waveform|lut|Mux22_rtl_0|auto_generated|ram_block1a9_PORTADATAOUT_bus [1] $end
$var wire 1 >$ waveform|lut|Mux22_rtl_0|auto_generated|ram_block1a9_PORTADATAOUT_bus [0] $end
$var wire 1 ?$ waveform|lut|Mux22_rtl_0|auto_generated|ram_block1a10_PORTADATAOUT_bus [1] $end
$var wire 1 @$ waveform|lut|Mux22_rtl_0|auto_generated|ram_block1a10_PORTADATAOUT_bus [0] $end
$upscope $end
$upscope $end
$enddefinitions $end
#0
$dumpvars
0!
1"
b100110001001011010000000 #
0$
b0 %
b1011111010111100001000000 &
1'
b0 (
0Z#
0Y#
0X#
0W#
0V#
0U#
0T#
0S#
0R#
0Q#
0P#
0O#
0N#
0M#
0L#
0K#
0J#
0I#
0H#
0G#
0F#
0E#
0D#
0C#
0B#
0A#
0@#
0?#
0>#
0=#
0<#
0;#
0f#
0e#
0d#
0c#
0b#
0a#
0`#
0_#
0^#
0]#
0\#
0[#
0($
0'$
0&$
0%$
0$$
0#$
0"$
0!$
0~#
0}#
0|#
0{#
0z#
0y#
0x#
0w#
0v#
0u#
0t#
0s#
0r#
0q#
0p#
0o#
0n#
0m#
0l#
0k#
0j#
0i#
0h#
0g#
0*$
0)$
0,$
0+$
0.$
0-$
00$
0/$
02$
01$
04$
03$
06$
05$
08$
07$
0:$
09$
0<$
0;$
0>$
0=$
0@$
0?$
04
03
02
01
00
0/
0.
0-
0,
0+
0*
0)
0@
0?
0>
0=
0<
0;
0:
09
08
07
06
05
xA
0B
1C
xD
1E
1F
1G
0H
0I
0J
1K
1L
1M
1N
0O
0P
0Q
1R
1S
1T
1U
0V
0W
1X
0Y
0Z
0[
0\
0]
1^
1_
1`
0a
0b
0c
1d
0e
0f
1g
1h
1i
1j
0k
0l
1m
1n
1o
0p
1q
1r
0s
0t
0u
0v
1w
1x
0y
0z
0{
1|
0}
0~
0!!
0"!
0#!
0$!
0%!
0&!
0'!
0(!
0)!
0*!
0+!
0,!
0-!
0.!
0/!
00!
01!
12!
03!
04!
05!
06!
07!
08!
09!
0:!
0;!
0<!
0=!
0>!
0?!
0@!
0A!
0B!
0C!
0D!
0E!
0F!
0G!
0H!
0I!
0J!
0K!
0L!
0M!
0N!
0O!
0P!
0Q!
0R!
0S!
0T!
0U!
0V!
0W!
0X!
0Y!
0Z!
0[!
0\!
1]!
0^!
0_!
0`!
0a!
1b!
0c!
0d!
1e!
1f!
0g!
0h!
0i!
0j!
0k!
1l!
0m!
0n!
0o!
0p!
0q!
0r!
0s!
0t!
0u!
0v!
0w!
0x!
0y!
0z!
0{!
0|!
0}!
0~!
0!"
0""
0#"
0$"
0%"
0&"
0'"
0("
0)"
0*"
0+"
0,"
0-"
0."
0/"
00"
01"
02"
03"
04"
05"
06"
07"
08"
09"
0:"
0;"
0<"
0="
0>"
0?"
0@"
0A"
0B"
0C"
0D"
0E"
0F"
0G"
0H"
0I"
0J"
0K"
0L"
0M"
0N"
0O"
0P"
0Q"
0R"
0S"
0T"
0U"
0V"
0W"
0X"
0Y"
0Z"
0["
0\"
0]"
0^"
0_"
0`"
0a"
0b"
0c"
0d"
0e"
0f"
0g"
0h"
0i"
0j"
0k"
0l"
0m"
0n"
0o"
0p"
0q"
0r"
0s"
0t"
1u"
0v"
1w"
0x"
0y"
1z"
0{"
0|"
1}"
0~"
0!#
1"#
0##
0$#
1%#
0&#
0'#
1(#
0)#
0*#
1+#
0,#
0-#
1.#
0/#
00#
11#
02#
03#
14#
05#
06#
17#
08#
09#
0:#
$end
#2500
1!
1I
0A
1J
1B#
1D#
1E#
1T#
1O#
1N#
1M#
1L#
1J#
1H#
1G#
1F#
1Z!
1X!
1V!
1R!
1N!
1L!
1J!
1H!
1>!
1_!
1d!
1n!
#2501
1*$
1,$
1.$
10$
12$
14$
16$
18$
1:$
1<$
1>$
1j"
1f"
1b"
1_"
1Y"
1U"
1P"
1L"
1H"
1C"
14"
#5000
0!
0I
1A
0J
#7500
1$
1!
1r"
1I
0A
1J
18#
07#
04#
01#
0.#
0+#
0(#
0%#
0"#
0}"
0z"
0u"
0w"
15#
12#
1/#
1,#
1)#
1&#
1##
1~"
1{"
1x"
08#
05#
02#
0/#
0,#
0)#
0&#
0##
0~"
0{"
0x"
1n#
1p#
1q#
1r#
1s#
1t#
1v#
1x#
1y#
1z#
1{#
1"$
1?!
1I!
1K!
1M!
1O!
1S!
1W!
1Y!
1^!
1c!
1h!
1r!
0>!
0H!
0J!
0L!
0N!
0R!
0V!
0X!
0Z!
1D"
0_!
1I"
0d!
1R"
0n!
1@!
1J!
1L!
1N!
1P!
1T!
1X!
1Z!
1_!
1d!
1i!
1s!
#10000
0!
0I
1A
0J
#12500
1!
1I
0A
1J
1b#
1d#
1e#
1f#
1m#
0n#
1o#
0t#
1u#
0v#
1w#
0{#
1!$
0"$
0?!
1A!
0I!
1Q!
0S!
1U!
0W!
1m!
0r!
1w!
1>!
0@!
1H!
0P!
1R!
0T!
1V!
0i!
0R"
1n!
0s!
0A!
1S!
0U!
1W!
1r!
0w!
1@!
1B!
0J!
0R!
1T!
0V!
0X!
0n!
1s!
1x!
1U!
0W!
1w!
0B!
0T!
1V!
1X!
0s!
0x!
1W!
0V!
0X!
1x!
1X!
#12501
0*$
1/$
15$
1Z"
1M"
04"
1~"
1N"
1)#
1\"
#15000
0$
0!
0r"
0I
1A
0J
18#
1u"
1w"
15#
12#
1/#
1,#
0)#
1&#
1##
0~"
1{"
1x"
1z"
0x"
1}"
0{"
1~"
#17500
1!
1I
0A
1J
1a#
0b#
1c#
1l#
0m#
0o#
0u#
0w#
0z#
1{#
1"$
1]"
1O"
1?!
1I!
0K!
0Q!
0U!
0m!
0w!
1|!
1=
1:
0>!
0H!
1J!
1P!
1T!
1i!
1s!
1["
0x!
1A!
1K!
0S!
0W!
0r!
0|!
0@!
0J!
0L!
1R!
1V!
1n!
1x!
1}!
1B!
1L!
0T!
0X!
0s!
0}!
#17501
1)$
1+$
0.$
0/$
11$
05$
17$
1^"
0Z"
1Q"
0M"
0H"
1B"
17"
0w"
0z"
1"#
1s"
19"
1x"
1E"
0~"
0N"
0##
1S"
1)#
0\"
0,#
1`"
0}"
0x"
1{"
1##
0"#
1~"
0##
#20000
0!
0I
1A
0J
#22500
1$
1!
1r"
1I
0A
1J
08#
0u"
05#
02#
0/#
1,#
0)#
0&#
1##
0~"
0{"
1x"
1`#
0a#
0c#
1n#
1o#
0s#
1t#
1v#
1w#
0{#
1~#
0!$
0"$
1a"
0]"
1T"
0O"
1F"
1A"
0?!
0A!
1C!
0I!
1Q!
1S!
1W!
0Y!
1m!
1r!
1@
1?
0=
1<
0:
19
1>!
1@!
0B!
1H!
0P!
0R!
0V!
1X!
0i!
1R"
0n!
0C!
0K!
1Y!
0@!
1B!
1D!
1J!
1R!
1T!
0X!
0Z!
1n!
1s!
0D!
0L!
1Z!
#22501
1*$
1-$
00$
1/$
15$
1Z"
1M"
0L"
1G"
14"
1{"
1J"
1N"
1~"
1)#
1\"
#25000
0!
0I
1A
0J
#27500
1!
1I
0A
1J
1b#
1c#
1m#
0o#
0t#
1u#
0w#
0y#
1z#
1{#
1"$
1-#
1*#
1$#
1!#
1|"
1y"
1v"
1]"
1O"
1K"
1?!
1I!
1K!
0M!
0Q!
1U!
0W!
0m!
1w!
1>
1=
1:
14
13
12
11
10
1.
1-
0>!
0H!
0J!
1L!
1P!
0T!
1V!
1i!
0s!
1M!
1W!
0Y!
1|!
1@!
1J!
0L!
0N!
0R!
0V!
1X!
0n!
0x!
1Y!
1N!
0X!
0Z!
1}!
1Z!
#27501
0,$
0+$
0-$
10$
02$
01$
13$
05$
07$
19$
1c"
0^"
0Z"
1V"
0Q"
0P"
1L"
0G"
0B"
0C"
0E"
0x"
0{"
0J"
0S"
0##
1&#
1W"
0)#
0\"
0,#
0`"
1/#
1d"
#30000
b1 (
0$
0!
16"
0r"
0I
1A
0J
18#
1u"
15#
12#
0/#
1,#
1)#
0&#
1##
0~"
1{"
1x"
1l"
1h"
1`"
1\"
